EESchema Schematic File Version 4
LIBS:status lights-cache
EELAYER 29 0
EELAYER END
$Descr A4 11693 8268
encoding utf-8
Sheet 1 1
Title ""
Date ""
Rev ""
Comp ""
Comment1 ""
Comment2 ""
Comment3 ""
Comment4 ""
$EndDescr
$Comp
L Transistor_FET:BUZ11 Q1
U 1 1 60783885
P 6450 4700
F 0 "Q1" H 6656 4746 50  0000 L CNN
F 1 "NDC7002N" H 6656 4655 50  0000 L CNN
F 2 "Package_TO_SOT_THT:TO-220-3_Vertical" H 6700 4625 50  0001 L CIN
F 3 "http://www.fairchildsemi.com/ds/BU/BUZ11.pdf" H 6450 4700 50  0001 L CNN
	1    6450 4700
	1    0    0    -1  
$EndComp
$Comp
L Device:R_POT RV1
U 1 1 60785A55
P 4650 5000
F 0 "RV1" H 4581 5046 50  0000 R CNN
F 1 "15K" H 4581 4955 50  0000 R CNN
F 2 "Potentiometer_THT:Potentiometer_Bourns_3339P_Vertical" H 4650 5000 50  0001 C CNN
F 3 "~" H 4650 5000 50  0001 C CNN
	1    4650 5000
	1    0    0    -1  
$EndComp
$Comp
L Device:R_Small_US R3
U 1 1 60785EAA
P 5200 3650
F 0 "R3" V 4995 3650 50  0000 C CNN
F 1 "1k" V 5086 3650 50  0000 C CNN
F 2 "Resistor_THT:R_Axial_DIN0411_L9.9mm_D3.6mm_P5.08mm_Vertical" H 5200 3650 50  0001 C CNN
F 3 "~" H 5200 3650 50  0001 C CNN
	1    5200 3650
	0    1    1    0   
$EndComp
$Comp
L Device:R_Small_US R1
U 1 1 60786A11
P 5650 4050
F 0 "R1" H 5582 4004 50  0000 R CNN
F 1 "100" H 5582 4095 50  0000 R CNN
F 2 "Resistor_THT:R_Axial_DIN0411_L9.9mm_D3.6mm_P5.08mm_Vertical" H 5650 4050 50  0001 C CNN
F 3 "~" H 5650 4050 50  0001 C CNN
	1    5650 4050
	-1   0    0    1   
$EndComp
$Comp
L Device:R_Small_US R2
U 1 1 60787A87
P 6550 3800
F 0 "R2" H 6618 3846 50  0000 L CNN
F 1 "50" H 6618 3755 50  0000 L CNN
F 2 "Resistor_THT:R_Axial_DIN0411_L9.9mm_D3.6mm_P5.08mm_Vertical" H 6550 3800 50  0001 C CNN
F 3 "~" H 6550 3800 50  0001 C CNN
	1    6550 3800
	1    0    0    -1  
$EndComp
Wire Wire Line
	6550 4900 6550 5700
Wire Wire Line
	5100 3650 4650 3650
Wire Wire Line
	4650 5150 4650 5700
$Comp
L Device:LED D2
U 1 1 6078D7CC
P 6550 4200
F 0 "D2" V 6589 4083 50  0000 R CNN
F 1 "LED" V 6498 4083 50  0000 R CNN
F 2 "Diode_SMD:D_MicroMELF_Hadsoldering" H 6550 4200 50  0001 C CNN
F 3 "~" H 6550 4200 50  0001 C CNN
	1    6550 4200
	0    -1   -1   0   
$EndComp
Wire Wire Line
	5300 3650 6300 3650
Wire Wire Line
	6300 3500 6550 3500
Wire Wire Line
	6550 3500 6550 3700
Wire Wire Line
	6550 3900 6550 4050
Wire Wire Line
	6550 4350 6550 4500
Wire Wire Line
	4000 3300 4000 4500
Wire Wire Line
	4000 4500 3950 4500
Wire Wire Line
	4000 4800 4000 5700
Wire Wire Line
	4000 5700 4650 5700
Connection ~ 4650 5700
Wire Wire Line
	6300 3650 6300 3500
Wire Wire Line
	4650 3650 4650 4850
Wire Wire Line
	6550 3500 6700 3500
Connection ~ 6550 3500
Connection ~ 5400 5700
Wire Wire Line
	5400 5700 6550 5700
$Comp
L Transistor_BJT:BC547 Q2
U 1 1 60B6D6C0
P 5300 5000
F 0 "Q2" H 5491 5046 50  0000 L CNN
F 1 "BC547" H 5491 4955 50  0000 L CNN
F 2 "Package_TO_SOT_THT:TO-92_Inline" H 5500 4925 50  0001 L CIN
F 3 "http://www.fairchildsemi.com/ds/BC/BC547.pdf" H 5300 5000 50  0001 L CNN
	1    5300 5000
	1    0    0    -1  
$EndComp
Wire Wire Line
	4650 5700 5400 5700
Wire Wire Line
	4800 5000 5100 5000
$Comp
L Device:LED D1
U 1 1 60B6EB79
P 5650 4400
F 0 "D1" V 5689 4283 50  0000 R CNN
F 1 "LED" V 5598 4283 50  0000 R CNN
F 2 "Diode_SMD:D_MicroMELF_Hadsoldering" H 5650 4400 50  0001 C CNN
F 3 "~" H 5650 4400 50  0001 C CNN
	1    5650 4400
	0    -1   -1   0   
$EndComp
Wire Wire Line
	5650 4700 5650 4550
Wire Wire Line
	5650 4700 6250 4700
Wire Wire Line
	5650 4550 5400 4550
Wire Wire Line
	5400 4550 5400 4800
Connection ~ 5650 4550
Wire Wire Line
	5650 4150 5650 4250
Wire Wire Line
	5650 3950 5650 3300
Wire Wire Line
	4000 3300 5650 3300
Connection ~ 5650 3300
Wire Wire Line
	5400 5200 5400 5700
$Comp
L power:+12V #PWR0101
U 1 1 60B724C3
P 3950 4500
F 0 "#PWR0101" H 3950 4350 50  0001 C CNN
F 1 "+12V" V 3965 4628 50  0000 L CNN
F 2 "" H 3950 4500 50  0001 C CNN
F 3 "" H 3950 4500 50  0001 C CNN
	1    3950 4500
	0    -1   -1   0   
$EndComp
$Comp
L power:GND #PWR0102
U 1 1 60B729EA
P 4000 4800
F 0 "#PWR0102" H 4000 4550 50  0001 C CNN
F 1 "GND" H 4005 4627 50  0000 C CNN
F 2 "" H 4000 4800 50  0001 C CNN
F 3 "" H 4000 4800 50  0001 C CNN
	1    4000 4800
	-1   0    0    1   
$EndComp
$Comp
L Connector:Conn_01x02_Male J1
U 1 1 60B743F1
P 7250 3450
F 0 "J1" H 7222 3332 50  0000 R CNN
F 1 "Conn_01x02_Male" H 7222 3423 50  0000 R CNN
F 2 "Connector_Pin:Pin_D1.0mm_L10.0mm" H 7250 3450 50  0001 C CNN
F 3 "~" H 7250 3450 50  0001 C CNN
	1    7250 3450
	-1   0    0    1   
$EndComp
Wire Wire Line
	7050 3300 7050 3350
Wire Wire Line
	5650 3300 7050 3300
Wire Wire Line
	7050 3450 6700 3450
Wire Wire Line
	6700 3450 6700 3500
$EndSCHEMATC
