"Id";"Designator";"Package";"Quantity";"Designation";"Supplier and ref";
1;"IC1";"DIP794W53P254L959H508Q8N";1;"LM358P";;;
2;"J3,J2";"Molex_KK-254_AE-6410-02A_1x02_P2.54mm_Vertical";2;"Conn_01x02";;;
3;"J1";"PinSocket_2x20_P2.54mm_Vertical_Centered_Anchor";1;"GPIO_CONNECTOR";;;
4;"RV1";"Potentiometer_ACP_CA6-H2,5_Horizontal";1;"15k";;;
5;"R13,R11,R7";"R_Axial_DIN0204_L3.6mm_D1.6mm_P7.62mm_Horizontal";3;"1k";;;
6;"R12,R10,R3";"R_Axial_DIN0204_L3.6mm_D1.6mm_P7.62mm_Horizontal";3;"10k";;;
7;"R9";"R_Axial_DIN0204_L3.6mm_D1.6mm_P7.62mm_Horizontal";1;"50";;;
8;"R8";"R_Axial_DIN0204_L3.6mm_D1.6mm_P7.62mm_Horizontal";1;"100";;;
9;"R6";"R_Axial_DIN0204_L3.6mm_D1.6mm_P7.62mm_Horizontal";1;"2.7K";;;
10;"R5";"R_Axial_DIN0204_L3.6mm_D1.6mm_P7.62mm_Horizontal";1;"7.5K";;;
11;"R4";"R_Axial_DIN0204_L3.6mm_D1.6mm_P7.62mm_Horizontal";1;"200";;;
12;"R2";"R_Axial_DIN0204_L3.6mm_D1.6mm_P7.62mm_Horizontal";1;"150";;;
13;"R1";"R_Axial_DIN0204_L3.6mm_D1.6mm_P7.62mm_Horizontal";1;"100k";;;
14;"Q4";"TO-251-3_Vertical";1;"Q_NMOS_DGS";;;
15;"Q3";"TO-39-3";1;"2N2219";;;
16;"Q1";"TO-92S_Wide";1;"BC547";;;
17;"D2,D1";"LED_D1.8mm_W1.8mm_H2.4mm_Horizontal_O1.27mm_Z1.6mm";2;"LED";;;
18;"U2";"SOT-23W";1;"A1302KLHLT-T";;;
19;"U1";"DIP-16_W7.62mm";1;"L293D";;;
20;"Q2";"TO-220-3_Vertical";1;"BUZ11";;;
21;"J4";"Molex_KK-254_AE-6410-04A_1x04_P2.54mm_Vertical";1;"Conn_01x04";;;
22;"D3";"D_DO-35_SOD27_P7.62mm_Horizontal";1;"D_Zener";;;
23;"H1,H2,H3,H4";"MountingHole_2.7mm_M2.5_uHAT_RPi";4;"MountingHole";;;
