EESchema Schematic File Version 4
EELAYER 30 0
EELAYER END
$Descr A4 11693 8268
encoding utf-8
Sheet 3 4
Title "Status_LEDS"
Date "2021-06-03"
Rev "1.0"
Comp "EEE3088-Group45"
Comment1 ""
Comment2 ""
Comment3 ""
Comment4 ""
$EndDescr
$Comp
L Connector_Generic:Conn_01x02 J2
U 1 1 60C0622F
P 7100 2150
F 0 "J2" H 7180 2142 50  0000 L CNN
F 1 "Conn_01x02" H 7180 2051 50  0000 L CNN
F 2 "Connector_Molex:Molex_KK-254_AE-6410-02A_1x02_P2.54mm_Vertical" H 7100 2150 50  0001 C CNN
F 3 "~" H 7100 2150 50  0001 C CNN
	1    7100 2150
	1    0    0    -1  
$EndComp
Wire Wire Line
	6750 2150 6900 2150
Text GLabel 6850 2250 3    50   Input ~ 0
V2
Text GLabel 6850 2150 1    50   Input ~ 0
V1
Wire Wire Line
	5350 1900 6750 1900
Wire Wire Line
	5350 1900 5350 2550
Wire Wire Line
	2900 3600 2900 1900
Connection ~ 5350 1900
Wire Wire Line
	2900 1900 5350 1900
$Comp
L power:+12V #PWR01
U 1 1 60B903D1
P 2550 3600
F 0 "#PWR01" H 2550 3450 50  0001 C CNN
F 1 "+12V" V 2565 3728 50  0000 L CNN
F 2 "" H 2550 3600 50  0001 C CNN
F 3 "" H 2550 3600 50  0001 C CNN
	1    2550 3600
	0    -1   -1   0   
$EndComp
Wire Wire Line
	2550 3600 2900 3600
Wire Wire Line
	6750 1900 6750 2150
$Comp
L Device:R_POT RV1
U 1 1 60BC8DAA
P 4050 3650
F 0 "RV1" H 3980 3696 50  0000 R CNN
F 1 "15k" H 3980 3605 50  0000 R CNN
F 2 "Potentiometer_THT:Potentiometer_ACP_CA6-H2,5_Horizontal" H 4050 3650 50  0001 C CNN
F 3 "~" H 4050 3650 50  0001 C CNN
	1    4050 3650
	1    0    0    -1  
$EndComp
Wire Wire Line
	6350 4000 5350 4000
Wire Wire Line
	6650 4200 6650 4450
Wire Wire Line
	6650 4450 5150 4450
Connection ~ 5150 4450
Wire Wire Line
	5150 3850 5150 4450
Wire Wire Line
	5350 2850 5350 3000
Wire Wire Line
	5150 3400 5150 3450
Wire Wire Line
	5350 4000 5350 3400
Wire Wire Line
	5350 3300 5350 3400
Connection ~ 5350 3400
Wire Wire Line
	5350 3400 5150 3400
Wire Wire Line
	4200 3650 4850 3650
$Comp
L Transistor_BJT:BC547 Q1
U 1 1 60B946CC
P 5050 3650
F 0 "Q1" H 5241 3696 50  0000 L CNN
F 1 "BC547" H 5241 3605 50  0000 L CNN
F 2 "Package_TO_SOT_THT:TO-92S_Wide" H 5250 3575 50  0001 L CIN
F 3 "https://www.onsemi.com/pub/Collateral/BC550-D.pdf" H 5050 3650 50  0001 L CNN
	1    5050 3650
	1    0    0    -1  
$EndComp
Wire Wire Line
	4050 2400 4050 3500
Wire Wire Line
	5150 4450 4050 4450
Wire Wire Line
	4050 4450 2900 4450
Connection ~ 4050 4450
Wire Wire Line
	4050 3800 4050 4450
Wire Wire Line
	4400 2400 4050 2400
Wire Wire Line
	2900 4450 2900 3900
Wire Wire Line
	5100 2400 4700 2400
Wire Wire Line
	5100 2250 5100 2400
Wire Wire Line
	6650 2950 6650 3300
Wire Wire Line
	6650 3600 6650 3800
Wire Wire Line
	6650 2250 6900 2250
Wire Wire Line
	5100 2250 6650 2250
Connection ~ 6650 2250
Wire Wire Line
	6650 2250 6650 2650
$Comp
L Device:R_US R9
U 1 1 60BB9084
P 6650 2800
F 0 "R9" H 6718 2846 50  0000 L CNN
F 1 "50" H 6718 2755 50  0000 L CNN
F 2 "Resistor_THT:R_Axial_DIN0204_L3.6mm_D1.6mm_P7.62mm_Horizontal" V 6690 2790 50  0001 C CNN
F 3 "~" H 6650 2800 50  0001 C CNN
	1    6650 2800
	1    0    0    -1  
$EndComp
$Comp
L Transistor_FET:BUZ11 Q2
U 1 1 60BB6CD2
P 6550 4000
F 0 "Q2" H 6755 4046 50  0000 L CNN
F 1 "BUZ11" H 6755 3955 50  0000 L CNN
F 2 "Package_TO_SOT_THT:TO-220-3_Vertical" H 6800 3925 50  0001 L CIN
F 3 "https://media.digikey.com/pdf/Data%20Sheets/Fairchild%20PDFs/BUZ11.pdf" H 6550 4000 50  0001 L CNN
	1    6550 4000
	1    0    0    -1  
$EndComp
$Comp
L power:GND #PWR02
U 1 1 60BA5826
P 2900 3900
F 0 "#PWR02" H 2900 3650 50  0001 C CNN
F 1 "GND" H 2905 3727 50  0000 C CNN
F 2 "" H 2900 3900 50  0001 C CNN
F 3 "" H 2900 3900 50  0001 C CNN
	1    2900 3900
	-1   0    0    1   
$EndComp
$Comp
L Device:LED D2
U 1 1 60B99C42
P 6650 3450
F 0 "D2" V 6689 3332 50  0000 R CNN
F 1 "LED" V 6598 3332 50  0000 R CNN
F 2 "LED_THT:LED_D1.8mm_W1.8mm_H2.4mm_Horizontal_O1.27mm_Z1.6mm" H 6650 3450 50  0001 C CNN
F 3 "~" H 6650 3450 50  0001 C CNN
	1    6650 3450
	0    -1   -1   0   
$EndComp
$Comp
L Device:R_US R8
U 1 1 60B99162
P 5350 2700
F 0 "R8" H 5418 2746 50  0000 L CNN
F 1 "100" H 5418 2655 50  0000 L CNN
F 2 "Resistor_THT:R_Axial_DIN0204_L3.6mm_D1.6mm_P7.62mm_Horizontal" V 5390 2690 50  0001 C CNN
F 3 "~" H 5350 2700 50  0001 C CNN
	1    5350 2700
	1    0    0    -1  
$EndComp
$Comp
L Device:LED D1
U 1 1 60B972C9
P 5350 3150
F 0 "D1" V 5389 3032 50  0000 R CNN
F 1 "LED" V 5298 3032 50  0000 R CNN
F 2 "LED_THT:LED_D1.8mm_W1.8mm_H2.4mm_Horizontal_O1.27mm_Z1.6mm" H 5350 3150 50  0001 C CNN
F 3 "~" H 5350 3150 50  0001 C CNN
	1    5350 3150
	0    -1   -1   0   
$EndComp
$Comp
L Device:R_US R7
U 1 1 60B91C4A
P 4550 2400
F 0 "R7" V 4345 2400 50  0000 C CNN
F 1 "1k" V 4436 2400 50  0000 C CNN
F 2 "Resistor_THT:R_Axial_DIN0204_L3.6mm_D1.6mm_P7.62mm_Horizontal" V 4590 2390 50  0001 C CNN
F 3 "~" H 4550 2400 50  0001 C CNN
	1    4550 2400
	0    1    1    0   
$EndComp
$EndSCHEMATC
