EESchema Schematic File Version 4
EELAYER 30 0
EELAYER END
$Descr A4 11693 8268
encoding utf-8
Sheet 4 4
Title "Switching Power Regulator"
Date "2021-06-03"
Rev "1.0"
Comp "EEE3088-Group45"
Comment1 ""
Comment2 ""
Comment3 ""
Comment4 ""
$EndDescr
$Comp
L Transistor_BJT:2N2219 Q3
U 1 1 60C2F1E8
P 3100 3200
F 0 "Q3" H 3290 3246 50  0000 L CNN
F 1 "2N2219" H 3290 3155 50  0000 L CNN
F 2 "Package_TO_SOT_THT:TO-39-3" H 3300 3125 50  0001 L CIN
F 3 "http://www.onsemi.com/pub_link/Collateral/2N2219-D.PDF" H 3100 3200 50  0001 L CNN
	1    3100 3200
	0    -1   -1   0   
$EndComp
Text GLabel 2350 3100 1    50   Input ~ 0
Vin
Wire Wire Line
	2400 3750 3100 3750
Wire Wire Line
	2400 3600 2400 3750
Wire Wire Line
	5700 2750 5700 2500
Wire Wire Line
	5700 2750 6100 2750
Connection ~ 5700 2750
Wire Wire Line
	5700 2900 5700 2750
Wire Wire Line
	5700 3300 5700 3900
Wire Wire Line
	5200 3100 5400 3100
Wire Wire Line
	5200 3700 5200 4300
Wire Wire Line
	5200 3100 5200 3400
Wire Wire Line
	3850 3600 3850 4500
Wire Wire Line
	3300 3100 3850 3100
Wire Wire Line
	3850 3100 4400 3100
Connection ~ 3850 3100
Wire Wire Line
	3850 3100 3850 3300
Wire Wire Line
	3100 4050 3100 4450
Wire Wire Line
	3100 3400 3100 3750
Wire Wire Line
	2400 3100 2350 3100
Wire Wire Line
	2400 3100 2900 3100
Connection ~ 2400 3100
$Comp
L Device:R_US R10
U 1 1 60BF48E6
P 2400 3450
F 0 "R10" H 2468 3496 50  0000 L CNN
F 1 "10k" H 2468 3405 50  0000 L CNN
F 2 "Resistor_THT:R_Axial_DIN0204_L3.6mm_D1.6mm_P7.62mm_Horizontal" V 2440 3440 50  0001 C CNN
F 3 "~" H 2400 3450 50  0001 C CNN
	1    2400 3450
	1    0    0    -1  
$EndComp
Connection ~ 5200 3100
Wire Wire Line
	4700 3100 5200 3100
$Comp
L power:+15V #PWR07
U 1 1 60BFB987
P 5700 2500
F 0 "#PWR07" H 5700 2350 50  0001 C CNN
F 1 "+15V" H 5715 2673 50  0000 C CNN
F 2 "" H 5700 2500 50  0001 C CNN
F 3 "" H 5700 2500 50  0001 C CNN
	1    5700 2500
	1    0    0    -1  
$EndComp
$Comp
L power:GND #PWR08
U 1 1 60BFB372
P 5700 3900
F 0 "#PWR08" H 5700 3650 50  0001 C CNN
F 1 "GND" H 5705 3727 50  0000 C CNN
F 2 "" H 5700 3900 50  0001 C CNN
F 3 "" H 5700 3900 50  0001 C CNN
	1    5700 3900
	1    0    0    -1  
$EndComp
$Comp
L power:GND #PWR06
U 1 1 60BFAE09
P 5200 4300
F 0 "#PWR06" H 5200 4050 50  0001 C CNN
F 1 "GND" H 5205 4127 50  0000 C CNN
F 2 "" H 5200 4300 50  0001 C CNN
F 3 "" H 5200 4300 50  0001 C CNN
	1    5200 4300
	1    0    0    -1  
$EndComp
$Comp
L power:GND #PWR05
U 1 1 60BFA832
P 3850 4500
F 0 "#PWR05" H 3850 4250 50  0001 C CNN
F 1 "GND" H 3855 4327 50  0000 C CNN
F 2 "" H 3850 4500 50  0001 C CNN
F 3 "" H 3850 4500 50  0001 C CNN
	1    3850 4500
	1    0    0    -1  
$EndComp
$Comp
L Device:Q_NMOS_DGS Q4
U 1 1 60BF910B
P 5600 3100
F 0 "Q4" H 5804 3146 50  0000 L CNN
F 1 "Q_NMOS_DGS" H 5804 3055 50  0000 L CNN
F 2 "Package_TO_SOT_THT:TO-251-3_Vertical" H 5800 3200 50  0001 C CNN
F 3 "~" H 5600 3100 50  0001 C CNN
	1    5600 3100
	1    0    0    -1  
$EndComp
$Comp
L Device:R_US R13
U 1 1 60BF7E8D
P 5200 3550
F 0 "R13" H 5268 3596 50  0000 L CNN
F 1 "1k" H 5268 3505 50  0000 L CNN
F 2 "Resistor_THT:R_Axial_DIN0204_L3.6mm_D1.6mm_P7.62mm_Horizontal" V 5240 3540 50  0001 C CNN
F 3 "~" H 5200 3550 50  0001 C CNN
	1    5200 3550
	1    0    0    -1  
$EndComp
$Comp
L Device:R_US R12
U 1 1 60BF7704
P 4550 3100
F 0 "R12" V 4345 3100 50  0000 C CNN
F 1 "10k" V 4436 3100 50  0000 C CNN
F 2 "Resistor_THT:R_Axial_DIN0204_L3.6mm_D1.6mm_P7.62mm_Horizontal" V 4590 3090 50  0001 C CNN
F 3 "~" H 4550 3100 50  0001 C CNN
	1    4550 3100
	0    1    1    0   
$EndComp
$Comp
L Device:R_US R11
U 1 1 60BF637D
P 3850 3450
F 0 "R11" H 3918 3496 50  0000 L CNN
F 1 "1k" H 3918 3405 50  0000 L CNN
F 2 "Resistor_THT:R_Axial_DIN0204_L3.6mm_D1.6mm_P7.62mm_Horizontal" V 3890 3440 50  0001 C CNN
F 3 "~" H 3850 3450 50  0001 C CNN
	1    3850 3450
	1    0    0    -1  
$EndComp
$Comp
L power:GND #PWR04
U 1 1 60BF5FE0
P 3100 4450
F 0 "#PWR04" H 3100 4200 50  0001 C CNN
F 1 "GND" H 3105 4277 50  0000 C CNN
F 2 "" H 3100 4450 50  0001 C CNN
F 3 "" H 3100 4450 50  0001 C CNN
	1    3100 4450
	1    0    0    -1  
$EndComp
Connection ~ 3100 3750
$Comp
L Device:D_Zener D3
U 1 1 60BF5492
P 3100 3900
F 0 "D3" V 3054 3980 50  0000 L CNN
F 1 "D_Zener" V 3145 3980 50  0000 L CNN
F 2 "Diode_THT:D_DO-35_SOD27_P7.62mm_Horizontal" H 3100 3900 50  0001 C CNN
F 3 "~" H 3100 3900 50  0001 C CNN
	1    3100 3900
	0    1    1    0   
$EndComp
Text HLabel 6100 2750 2    50   Output ~ 0
3.3V
Wire Wire Line
	2400 3100 2400 3300
$Comp
L Connector_Generic:Conn_01x02 J3
U 1 1 60C13F06
P 2150 3200
F 0 "J3" H 2068 2875 50  0000 C CNN
F 1 "Conn_01x02" H 2068 2966 50  0000 C CNN
F 2 "Connector_Molex:Molex_KK-254_AE-6410-02A_1x02_P2.54mm_Vertical" H 2150 3200 50  0001 C CNN
F 3 "~" H 2150 3200 50  0001 C CNN
	1    2150 3200
	-1   0    0    1   
$EndComp
Wire Wire Line
	2350 3200 2350 3300
$Comp
L power:GND #PWR03
U 1 1 60C14EFC
P 2350 3300
F 0 "#PWR03" H 2350 3050 50  0001 C CNN
F 1 "GND" H 2355 3127 50  0000 C CNN
F 2 "" H 2350 3300 50  0001 C CNN
F 3 "" H 2350 3300 50  0001 C CNN
	1    2350 3300
	1    0    0    -1  
$EndComp
$EndSCHEMATC
