PCBNEW-LibModule-V1  2021-05-29 23:15:51
# encoding utf-8
Units mm
$INDEX
DIP794W53P254L959H508Q8N
$EndINDEX
$MODULE DIP794W53P254L959H508Q8N
Po 0 0 0 15 60b2bd17 00000000 ~~
Li DIP794W53P254L959H508Q8N
Cd P (R-PDIP-T8)
Kw Integrated Circuit
Sc 0
At STD
AR 
Op 0 0 0
T0 0 0 1.27 1.27 0 0.254 N V 21 N "IC**"
T1 0 0 1.27 1.27 0 0.254 N I 21 N "DIP794W53P254L959H508Q8N"
DS -4.945 -5.33 4.945 -5.33 0.05 24
DS 4.945 -5.33 4.945 5.33 0.05 24
DS 4.945 5.33 -4.945 5.33 0.05 24
DS -4.945 5.33 -4.945 -5.33 0.05 24
DS -3.3 -5.08 3.3 -5.08 0.1 24
DS 3.3 -5.08 3.3 5.08 0.1 24
DS 3.3 5.08 -3.3 5.08 0.1 24
DS -3.3 5.08 -3.3 -5.08 0.1 24
DS -3.3 -3.81 -2.03 -5.08 0.1 24
DS -4.535 -5.08 3.3 -5.08 0.2 21
DS -3.3 5.08 3.3 5.08 0.2 21
$PAD
Po -3.97 -3.81
Sh "1" R 1.13 1.13 0 0 900
Dr 0.73 0 0
At STD N 00E0FFFF
Ne 0 ""
$EndPAD
$PAD
Po -3.97 -1.27
Sh "2" C 1.13 1.13 0 0 900
Dr 0.73 0 0
At STD N 00E0FFFF
Ne 0 ""
$EndPAD
$PAD
Po -3.97 1.27
Sh "3" C 1.13 1.13 0 0 900
Dr 0.73 0 0
At STD N 00E0FFFF
Ne 0 ""
$EndPAD
$PAD
Po -3.97 3.81
Sh "4" C 1.13 1.13 0 0 900
Dr 0.73 0 0
At STD N 00E0FFFF
Ne 0 ""
$EndPAD
$PAD
Po 3.97 3.81
Sh "5" C 1.13 1.13 0 0 900
Dr 0.73 0 0
At STD N 00E0FFFF
Ne 0 ""
$EndPAD
$PAD
Po 3.97 1.27
Sh "6" C 1.13 1.13 0 0 900
Dr 0.73 0 0
At STD N 00E0FFFF
Ne 0 ""
$EndPAD
$PAD
Po 3.97 -1.27
Sh "7" C 1.13 1.13 0 0 900
Dr 0.73 0 0
At STD N 00E0FFFF
Ne 0 ""
$EndPAD
$PAD
Po 3.97 -3.81
Sh "8" C 1.13 1.13 0 0 900
Dr 0.73 0 0
At STD N 00E0FFFF
Ne 0 ""
$EndPAD
$EndMODULE DIP794W53P254L959H508Q8N
$EndLIBRARY
