EESchema Schematic File Version 4
EELAYER 30 0
EELAYER END
$Descr A4 11693 8268
encoding utf-8
Sheet 1 1
Title ""
Date ""
Rev ""
Comp ""
Comment1 ""
Comment2 ""
Comment3 ""
Comment4 ""
$EndDescr
Wire Wire Line
	5700 3350 5500 3350
Wire Wire Line
	3850 3350 4200 3350
Text GLabel 3850 3350 0    50   Input ~ 0
Vin
Wire Wire Line
	4900 4450 4900 4300
$Comp
L power:GND #PWR?
U 1 1 60934481
P 4900 4450
F 0 "#PWR?" H 4900 4200 50  0001 C CNN
F 1 "GND" H 4905 4277 50  0000 C CNN
F 2 "" H 4900 4450 50  0001 C CNN
F 3 "" H 4900 4450 50  0001 C CNN
	1    4900 4450
	1    0    0    -1  
$EndComp
Wire Wire Line
	5500 4450 5500 3850
$Comp
L power:GND #PWR?
U 1 1 6093352F
P 5500 4450
F 0 "#PWR?" H 5500 4200 50  0001 C CNN
F 1 "GND" H 5505 4277 50  0000 C CNN
F 2 "" H 5500 4450 50  0001 C CNN
F 3 "" H 5500 4450 50  0001 C CNN
	1    5500 4450
	1    0    0    -1  
$EndComp
Wire Wire Line
	5500 3350 5500 3550
Connection ~ 5500 3350
Wire Wire Line
	5100 3350 5500 3350
Wire Wire Line
	4200 3350 4200 3450
Connection ~ 4200 3350
Wire Wire Line
	4700 3350 4200 3350
Wire Wire Line
	4900 3750 4900 3650
Wire Wire Line
	4200 3750 4900 3750
Connection ~ 4900 3750
Wire Wire Line
	4900 4000 4900 3750
$Comp
L Device:D_Zener D1
U 1 1 60930FE0
P 4900 4150
F 0 "D1" V 4854 4230 50  0000 L CNN
F 1 "D_Zener" V 4945 4230 50  0000 L CNN
F 2 "" H 4900 4150 50  0001 C CNN
F 3 "~" H 4900 4150 50  0001 C CNN
	1    4900 4150
	0    1    1    0   
$EndComp
$Comp
L Device:R R1
U 1 1 60930702
P 5500 3700
F 0 "R1" H 5570 3746 50  0000 L CNN
F 1 "1k" H 5570 3655 50  0000 L CNN
F 2 "" V 5430 3700 50  0001 C CNN
F 3 "~" H 5500 3700 50  0001 C CNN
	1    5500 3700
	1    0    0    -1  
$EndComp
$Comp
L Device:R R4
U 1 1 6092FD62
P 4200 3600
F 0 "R4" H 4270 3646 50  0000 L CNN
F 1 "10k" H 4270 3555 50  0000 L CNN
F 2 "" V 4130 3600 50  0001 C CNN
F 3 "~" H 4200 3600 50  0001 C CNN
	1    4200 3600
	1    0    0    -1  
$EndComp
$Comp
L Transistor_BJT:2N2219 Q1
U 1 1 6092D7AD
P 4900 3450
F 0 "Q1" V 5228 3450 50  0000 C CNN
F 1 "2N2219" V 5137 3450 50  0000 C CNN
F 2 "Package_TO_SOT_THT:TO-39-3" H 5100 3375 50  0001 L CIN
F 3 "http://www.onsemi.com/pub_link/Collateral/2N2219-D.PDF" H 4900 3450 50  0001 L CNN
	1    4900 3450
	0    -1   -1   0   
$EndComp
Wire Wire Line
	6700 2950 6700 3150
Wire Wire Line
	7350 2950 6700 2950
Text GLabel 7350 2950 2    50   Input ~ 0
Vout
Connection ~ 6700 2950
Wire Wire Line
	6700 2550 6700 2950
$Comp
L power:+15V #PWR?
U 1 1 6078C666
P 6700 2550
F 0 "#PWR?" H 6700 2400 50  0001 C CNN
F 1 "+15V" H 6715 2723 50  0000 C CNN
F 2 "" H 6700 2550 50  0001 C CNN
F 3 "" H 6700 2550 50  0001 C CNN
	1    6700 2550
	1    0    0    -1  
$EndComp
Wire Wire Line
	6200 4000 6200 4150
$Comp
L power:GND #PWR?
U 1 1 6078B82B
P 6200 4150
F 0 "#PWR?" H 6200 3900 50  0001 C CNN
F 1 "GND" H 6205 3977 50  0000 C CNN
F 2 "" H 6200 4150 50  0001 C CNN
F 3 "" H 6200 4150 50  0001 C CNN
	1    6200 4150
	1    0    0    -1  
$EndComp
Wire Wire Line
	6200 3350 6000 3350
Wire Wire Line
	6200 3700 6200 3350
Connection ~ 6200 3350
Wire Wire Line
	6400 3350 6200 3350
$Comp
L Device:R R2
U 1 1 6078AE3E
P 6200 3850
F 0 "R2" H 6270 3896 50  0000 L CNN
F 1 "1k" H 6270 3805 50  0000 L CNN
F 2 "" V 6130 3850 50  0001 C CNN
F 3 "~" H 6200 3850 50  0001 C CNN
	1    6200 3850
	1    0    0    -1  
$EndComp
$Comp
L Device:R R3
U 1 1 6078A854
P 5850 3350
F 0 "R3" V 5643 3350 50  0000 C CNN
F 1 "10k" V 5734 3350 50  0000 C CNN
F 2 "" V 5780 3350 50  0001 C CNN
F 3 "~" H 5850 3350 50  0001 C CNN
	1    5850 3350
	0    1    1    0   
$EndComp
Wire Wire Line
	6700 3550 6700 4100
$Comp
L power:GND #PWR?
U 1 1 6078A033
P 6700 4100
F 0 "#PWR?" H 6700 3850 50  0001 C CNN
F 1 "GND" H 6705 3927 50  0000 C CNN
F 2 "" H 6700 4100 50  0001 C CNN
F 3 "" H 6700 4100 50  0001 C CNN
	1    6700 4100
	1    0    0    -1  
$EndComp
$Comp
L Device:Q_NMOS_DGS Q2
U 1 1 6078970C
P 6600 3350
F 0 "Q2" H 6804 3396 50  0000 L CNN
F 1 "Q_NMOS_DGS" H 6804 3305 50  0000 L CNN
F 2 "" H 6800 3450 50  0001 C CNN
F 3 "~" H 6600 3350 50  0001 C CNN
	1    6600 3350
	1    0    0    -1  
$EndComp
$EndSCHEMATC
